…
``` r
print(object.size(get('flights')), units='auto')
```

    ## 57 Mb

``` r
# Compara: Escribe flights 
flights
```

    ## # A tibble: 479,230 × 18
    ##     YEAR QUARTER MONTH DAY_OF_MONTH CARRIER TAIL_NUM FL_NUM ORIGIN  DEST
    ##    <int>   <int> <int>        <int>   <chr>    <chr>  <int>  <chr> <chr>
    ## 1   2015       4    12            1      AA   N783AA      1    JFK   LAX
    ## 2   2015       4    12            2      AA   N785AA      1    JFK   LAX
    ## 3   2015       4    12            3      AA   N795AA      1    JFK   LAX
    ## 4   2015       4    12            5      AA   N787AA      1    JFK   LAX
    ## 5   2015       4    12            7      AA   N784AA      1    JFK   LAX
    ## 6   2015       4    12            8      AA   N799AA      1    JFK   LAX
    ## 7   2015       4    12            9      AA   N795AA      1    JFK   LAX
    ## 8   2015       4    12           10      AA   N793AA      1    JFK   LAX
    ## 9   2015       4    12           12      AA   N791AA      1    JFK   LAX
    ## 10  2015       4    12           14      AA   N785AA      1    JFK   LAX
    ## # ... with 479,220 more rows, and 9 more variables: DEP_TIME <chr>,
    ## #   DEP_DELAY <dbl>, ARR_TIME <chr>, ARR_DELAY <dbl>, CANCELLED <dbl>,
    ## #   DIVERTED <dbl>, AIR_TIME <dbl>, DISTANCE <dbl>, X18 <chr>

``` r
# Vs 
flights <- tbl_df(flights)
flights
```

    ## # A tibble: 479,230 × 18
    ##     YEAR QUARTER MONTH DAY_OF_MONTH CARRIER TAIL_NUM FL_NUM ORIGIN  DEST
    ##    <int>   <int> <int>        <int>   <chr>    <chr>  <int>  <chr> <chr>
    ## 1   2015       4    12            1      AA   N783AA      1    JFK   LAX
    ## 2   2015       4    12            2      AA   N785AA      1    JFK   LAX
    ## 3   2015       4    12            3      AA   N795AA      1    JFK   LAX
    ## 4   2015       4    12            5      AA   N787AA      1    JFK   LAX
    ## 5   2015       4    12            7      AA   N784AA      1    JFK   LAX
    ## 6   2015       4    12            8      AA   N799AA      1    JFK   LAX
    ## 7   2015       4    12            9      AA   N795AA      1    JFK   LAX
    ## 8   2015       4    12           10      AA   N793AA      1    JFK   LAX
    ## 9   2015       4    12           12      AA   N791AA      1    JFK   LAX
    ## 10  2015       4    12           14      AA   N785AA      1    JFK   LAX
    ## # ... with 479,220 more rows, and 9 more variables: DEP_TIME <chr>,
    ## #   DEP_DELAY <dbl>, ARR_TIME <chr>, ARR_DELAY <dbl>, CANCELLED <dbl>,
    ## #   DIVERTED <dbl>, AIR_TIME <dbl>, DISTANCE <dbl>, X18 <chr>
…
``` r
foo.df <- flights[flights$MONTH==12 & flights$DAY_OF_MONTH==31, ]
```

``` r
# dplyr 
# nota: , = AND
filter(flights, MONTH==12, DAY_OF_MONTH==31)
```

    ## # A tibble: 13,133 × 18
    ##     YEAR QUARTER MONTH DAY_OF_MONTH CARRIER TAIL_NUM FL_NUM ORIGIN  DEST
    ##    <int>   <int> <int>        <int>   <chr>    <chr>  <int>  <chr> <chr>
    ## 1   2015       4    12           31      AA   N785AA      1    JFK   LAX
    ## 2   2015       4    12           31      AA   N787AA      4    LAX   JFK
    ## 3   2015       4    12           31      AA   N367AA      5    DFW   HNL
    ## 4   2015       4    12           31      AA   N4YBAA      5    OKC   DFW
    ## 5   2015       4    12           31      AA   N383AA      6    OGG   DFW
    ## 6   2015       4    12           31      AA   N383AA      7    DFW   OGG
    ## 7   2015       4    12           31      AA   N367AA      8    HNL   DFW
    ## 8   2015       4    12           31      AA   N858AA     14    OGG   LAX
    ## 9   2015       4    12           31      AA   N791AA     17    JFK   SFO
    ## 10  2015       4    12           31      AA   N788AA     19    JFK   LAX
    ## # ... with 13,123 more rows, and 9 more variables: DEP_TIME <chr>,
    ## #   DEP_DELAY <dbl>, ARR_TIME <chr>, ARR_DELAY <dbl>, CANCELLED <dbl>,
    ## #   DIVERTED <dbl>, AIR_TIME <dbl>, DISTANCE <dbl>, X18 <chr>

``` r
# nota: | = OR
filter(flights, CARRIER=="AA" | CARRIER=="UA")
```

    ## # A tibble: 120,005 × 18
    ##     YEAR QUARTER MONTH DAY_OF_MONTH CARRIER TAIL_NUM FL_NUM ORIGIN  DEST
    ##    <int>   <int> <int>        <int>   <chr>    <chr>  <int>  <chr> <chr>
    ## 1   2015       4    12            1      AA   N783AA      1    JFK   LAX
    ## 2   2015       4    12            2      AA   N785AA      1    JFK   LAX
    ## 3   2015       4    12            3      AA   N795AA      1    JFK   LAX
    ## 4   2015       4    12            5      AA   N787AA      1    JFK   LAX
    ## 5   2015       4    12            7      AA   N784AA      1    JFK   LAX
    ## 6   2015       4    12            8      AA   N799AA      1    JFK   LAX
    ## 7   2015       4    12            9      AA   N795AA      1    JFK   LAX
    ## 8   2015       4    12           10      AA   N793AA      1    JFK   LAX
    ## 9   2015       4    12           12      AA   N791AA      1    JFK   LAX
    ## 10  2015       4    12           14      AA   N785AA      1    JFK   LAX
    ## # ... with 119,995 more rows, and 9 more variables: DEP_TIME <chr>,
    ## #   DEP_DELAY <dbl>, ARR_TIME <chr>, ARR_DELAY <dbl>, CANCELLED <dbl>,
    ## #   DIVERTED <dbl>, AIR_TIME <dbl>, DISTANCE <dbl>, X18 <chr>
…
-   Como un SELECT en SQL

``` r
# base R
flights[, c("DEP_TIME", "ARR_TIME", "FL_NUM")]
```

``` r
# dplyr
select(flights, DEP_TIME, ARR_TIME, FL_NUM)
```

    ## # A tibble: 479,230 × 3
    ##    DEP_TIME ARR_TIME FL_NUM
    ##       <chr>    <chr>  <int>
    ## 1      0857     1159      1
    ## 2      0854     1207      1
    ## 3      0855     1213      1
    ## 4      0856     1153      1
    ## 5      0852     1145      1
    ## 6      0857     1210      1
    ## 7      0857     1153      1
    ## 8      0855     1212      1
    ## 9      0858     1220      1
    ## 10     0857     1241      1
    ## # ... with 479,220 more rows

``` r
# Nota: `starts_with`, `ends_with`, y `matches` (para RegEx) buscan columnas por nombre
select(flights, YEAR:DAY_OF_MONTH, contains("DELAY"), matches("TIME$"))
```

    ## # A tibble: 479,230 × 9
    ##     YEAR QUARTER MONTH DAY_OF_MONTH DEP_DELAY ARR_DELAY DEP_TIME ARR_TIME
    ##    <int>   <int> <int>        <int>     <dbl>     <dbl>    <chr>    <chr>
    ## 1   2015       4    12            1        -3       -26     0857     1159
    ## 2   2015       4    12            2        -6       -18     0854     1207
    ## 3   2015       4    12            3        -5       -12     0855     1213
    ## 4   2015       4    12            5        -4       -32     0856     1153
    ## 5   2015       4    12            7        -8       -40     0852     1145
    ## 6   2015       4    12            8        -3       -15     0857     1210
    ## 7   2015       4    12            9        -3       -32     0857     1153
    ## 8   2015       4    12           10        -5       -13     0855     1212
    ## 9   2015       4    12           12        -2        -5     0858     1220
    ## 10  2015       4    12           14        -3        16     0857     1241
    ## # ... with 479,220 more rows, and 1 more variables: AIR_TIME <dbl>
…
``` r
# Anidamiento:
filter(select(flights, CARRIER, DEP_DELAY), DEP_DELAY > 60)
```

``` r
# Encadenamiento:
flights %>%
    select(CARRIER, DEP_DELAY) %>%
    filter(DEP_DELAY > 60)
```

    ## # A tibble: 31,376 × 2
    ##    CARRIER DEP_DELAY
    ##      <chr>     <dbl>
    ## 1       AA       156
    ## 2       AA       368
    ## 3       AA       105
    ## 4       AA        70
    ## 5       AA       201
    ## 6       AA        74
    ## 7       AA        61
    ## 8       AA       181
    ## 9       AA       135
    ## 10      AA        86
    ## # ... with 31,366 more rows
…
``` r
# base R 
flights[order(flights$DEP_DELAY), c("CARRIER", "DEP_DELAY")]
```

``` r
# dplyr
flights %>%
    select(CARRIER, DEP_DELAY) %>%
    arrange(DEP_DELAY)
```

    ## # A tibble: 479,230 × 2
    ##    CARRIER DEP_DELAY
    ##      <chr>     <dbl>
    ## 1       AS       -82
    ## 2       EV       -55
    ## 3       OO       -45
    ## 4       AS       -43
    ## 5       OO       -42
    ## 6       AS       -41
    ## 7       AS       -40
    ## 8       AS       -40
    ## 9       EV       -40
    ## 10      OO       -39
    ## # ... with 479,220 more rows
…
-   Permite crear variables a partir de variables existentes en nuestro conjunto de datos

``` r
# base R: Nueva variable SPEED (en mph)
flights$SPEED <- flights$DISTANCE / flights$AIR_TIME*60
flights[, c("DISTANCE", "AIR_TIME", "SPEED")]
```

``` r
# dplyr: comprobamos que es correcto
flights %>% select(DISTANCE, AIR_TIME) %>%
  mutate(SPEED = DISTANCE/AIR_TIME*60)
```

    ## # A tibble: 479,230 × 3
    ##    DISTANCE AIR_TIME    SPEED
    ##       <dbl>    <dbl>    <dbl>
    ## 1      2475      322 461.1801
    ## 2      2475      324 458.3333
    ## 3      2475      330 450.0000
    ## 4      2475      332 447.2892
    ## 5      2475      322 461.1801
    ## 6      2475      339 438.0531
    ## 7      2475      321 462.6168
    ## 8      2475      349 425.5014
    ## 9      2475      360 412.5000
    ## 10     2475      338 439.3491
    ## # ... with 479,220 more rows

``` r
# lo guardamos
flights %>% mutate(SPEED = DISTANCE/AIR_TIME*60)
```

    ## # A tibble: 479,230 × 19
    ##     YEAR QUARTER MONTH DAY_OF_MONTH CARRIER TAIL_NUM FL_NUM ORIGIN  DEST
    ##    <int>   <int> <int>        <int>   <chr>    <chr>  <int>  <chr> <chr>
    ## 1   2015       4    12            1      AA   N783AA      1    JFK   LAX
    ## 2   2015       4    12            2      AA   N785AA      1    JFK   LAX
    ## 3   2015       4    12            3      AA   N795AA      1    JFK   LAX
    ## 4   2015       4    12            5      AA   N787AA      1    JFK   LAX
    ## 5   2015       4    12            7      AA   N784AA      1    JFK   LAX
    ## 6   2015       4    12            8      AA   N799AA      1    JFK   LAX
    ## 7   2015       4    12            9      AA   N795AA      1    JFK   LAX
    ## 8   2015       4    12           10      AA   N793AA      1    JFK   LAX
    ## 9   2015       4    12           12      AA   N791AA      1    JFK   LAX
    ## 10  2015       4    12           14      AA   N785AA      1    JFK   LAX
    ## # ... with 479,220 more rows, and 10 more variables: DEP_TIME <chr>,
    ## #   DEP_DELAY <dbl>, ARR_TIME <chr>, ARR_DELAY <dbl>, CANCELLED <dbl>,
    ## #   DIVERTED <dbl>, AIR_TIME <dbl>, DISTANCE <dbl>, X18 <chr>, SPEED <dbl>
…
``` r
# base R: retraso medio por destino
head(with(flights, tapply(ARR_DELAY, DEST, mean, na.rm=TRUE)))
head(aggregate(ARR_DELAY ~ DEST, flights, mean))
```

``` r
# dplyr:
flights %>%
    group_by(DEST) %>%
    summarise(AVG_DELAY = mean(ARR_DELAY, na.rm=TRUE))
```

    ## # A tibble: 307 × 2
    ##     DEST AVG_DELAY
    ##    <chr>     <dbl>
    ## 1    ABE  5.466216
    ## 2    ABI  2.481865
    ## 3    ABQ  7.888959
    ## 4    ABR -2.803279
    ## 5    ABY 11.360000
    ## 6    ACT -1.726667
    ## 7    ACV 19.898305
    ## 8    ACY  4.535593
    ## 9    ADK -6.500000
    ## 10   ADQ -3.269231
    ## # ... with 297 more rows
…
``` r
# más simple
flights %>%
    group_by(DAY_OF_MONTH) %>%
    tally(sort = TRUE)
```

    ## # A tibble: 31 × 2
    ##    DAY_OF_MONTH     n
    ##           <int> <int>
    ## 1            18 16710
    ## 2            17 16579
    ## 3            27 16509
    ## 4            23 16481
    ## 5            28 16312
    ## 6            21 16306
    ## 7             3 16278
    ## 8            11 16263
    ## 9            22 16261
    ## 10           30 16260
    ## # ... with 21 more rows

``` r
# número total de vuelos y número de aviones distintos que han volado a cada destino
flights %>%
    group_by(DEST) %>%
    summarise(total = n(), aviones = n_distinct(TAIL_NUM))
```

    ## # A tibble: 307 × 3
    ##     DEST total aviones
    ##    <chr> <int>   <int>
    ## 1    ABE   153     104
    ## 2    ABI   210      63
    ## 3    ABQ  1624     899
    ## 4    ABR    62      31
    ## 5    ABY    75      36
    ## 6    ACT   151      27
    ## 7    ACV   125      79
    ## 8    ACY   298      30
    ## 9    ADK     9       8
    ## 10   ADQ    30      10
    ## # ... with 297 more rows
…
``` r
# más simple con `top_n`
flights %>%
    group_by(CARRIER) %>%
    select(MONTH, DAY_OF_MONTH, DEP_DELAY) %>%
    top_n(2) %>%
    arrange(CARRIER, desc(DEP_DELAY))
```

    ## Adding missing grouping variables: `CARRIER`

    ## Selecting by DEP_DELAY

    ## Source: local data frame [26 x 4]
    ## Groups: CARRIER [13]
    ## 
    ##    CARRIER MONTH DAY_OF_MONTH DEP_DELAY
    ##      <chr> <int>        <int>     <dbl>
    ## 1       AA    12           31      1649
    ## 2       AA    12           14      1576
    ## 3       AS    12           23       803
    ## 4       AS    12           13       571
    ## 5       B6    12           28      1006
    ## 6       B6    12           30       892
    ## 7       DL    12           20      1228
    ## 8       DL    12           24      1137
    ## 9       EV    12           26      1274
    ## 10      EV    12           26      1236
    ## # ... with 16 more rows

``` r
# Número de vuelos por mes y cambio respecto al dia anterior 
flights %>%
    group_by(DAY_OF_MONTH) %>%
    summarise(flight_count = n()) %>%
    mutate(change = flight_count - lag(flight_count))
```

    ## # A tibble: 31 × 3
    ##    DAY_OF_MONTH flight_count change
    ##           <int>        <int>  <int>
    ## 1             1        15823     NA
    ## 2             2        15860     37
    ## 3             3        16278    418
    ## 4             4        16215    -63
    ## 5             5        12200  -4015
    ## 6             6        15101   2901
    ## 7             7        16043    942
    ## 8             8        15575   -468
    ## 9             9        15849    274
    ## 10           10        16259    410
    ## # ... with 21 more rows

``` r
# delta

pct <- function(x) {x/lag(x)}

flights %>%
    group_by(DAY_OF_MONTH) %>%
    summarise(flight_count = n()) %>%
    mutate_each(funs(pct), flight_count)
```

    ## # A tibble: 31 × 2
    ##    DAY_OF_MONTH flight_count
    ##           <int>        <dbl>
    ## 1             1           NA
    ## 2             2    1.0023384
    ## 3             3    1.0263556
    ## 4             4    0.9961297
    ## 5             5    0.7523898
    ## 6             6    1.2377869
    ## 7             7    1.0623800
    ## 8             8    0.9708284
    ## 9             9    1.0175923
    ## 10           10    1.0258691
    ## # ... with 21 more rows
…
``` r
# muestra aleatoria con reemplazo
flights %>% sample_frac(0.25, replace=TRUE)
```

    ## # A tibble: 119,808 × 19
    ##     YEAR QUARTER MONTH DAY_OF_MONTH CARRIER TAIL_NUM FL_NUM ORIGIN  DEST
    ##    <int>   <int> <int>        <int>   <chr>    <chr>  <int>  <chr> <chr>
    ## 1   2015       4    12            2      AA   N3EJAA   1096    MCO   ORD
    ## 2   2015       4    12           29      UA   N36272    567    IAD   SFO
    ## 3   2015       4    12           25      WN   N7831B   1655    OAK   PHX
    ## 4   2015       4    12            6      UA   N410UA    698    ORD   LGA
    ## 5   2015       4    12           19      WN   N925WN   2008    ALB   BWI
    ## 6   2015       4    12           11      DL   N920DN   2297    ATL   JAX
    ## 7   2015       4    12           24      OO   N133SY   5195    SLC   SFO
    ## 8   2015       4    12            6      UA   N854UA    241    ATL   ORD
    ## 9   2015       4    12           30      WN   N495WN    431    DEN   BUR
    ## 10  2015       4    12           27      EV   N926EV   5602    ATL   LFT
    ## # ... with 119,798 more rows, and 10 more variables: DEP_TIME <chr>,
    ## #   DEP_DELAY <dbl>, ARR_TIME <chr>, ARR_DELAY <dbl>, CANCELLED <dbl>,
    ## #   DIVERTED <dbl>, AIR_TIME <dbl>, DISTANCE <dbl>, X18 <chr>, SPEED <dbl>
…
    ## Warning: 2 parsing failures.
    ##  row     col           expected actual
    ## 1252 airport delimiter or quote      B
    ## 1252 airport delimiter or quote

``` r
airports
```

    ## # A tibble: 3,376 × 7
    ##     iata              airport             city state country      lat
    ##    <chr>                <chr>            <chr> <chr>   <chr>    <dbl>
    ## 1    00M              Thigpen      Bay Springs    MS     USA 31.95376
    ## 2    00R Livingston Municipal       Livingston    TX     USA 30.68586
    ## 3    00V          Meadow Lake Colorado Springs    CO     USA 38.94575
    ## 4    01G         Perry-Warsaw            Perry    NY     USA 42.74135
    ## 5    01J     Hilliard Airpark         Hilliard    FL     USA 30.68801
    ## 6    01M    Tishomingo County          Belmont    MS     USA 34.49167
    ## 7    02A           Gragg-Wade          Clanton    AL     USA 32.85049
    ## 8    02C              Capitol       Brookfield    WI     USA 43.08751
    ## 9    02G    Columbiana County   East Liverpool    OH     USA 40.67331
    ## 10   03D     Memphis Memorial          Memphis    MO     USA 40.44726
    ## # ... with 3,366 more rows, and 1 more variables: long <dbl>

``` r
location <- airports %>% 
  select(DEST = iata, name = airport, lat, long)
location
```

    ## # A tibble: 3,376 × 4
    ##     DEST                 name      lat       long
    ##    <chr>                <chr>    <dbl>      <dbl>
    ## 1    00M              Thigpen 31.95376  -89.23450
    ## 2    00R Livingston Municipal 30.68586  -95.01793
    ## 3    00V          Meadow Lake 38.94575 -104.56989
    ## 4    01G         Perry-Warsaw 42.74135  -78.05208
    ## 5    01J     Hilliard Airpark 30.68801  -81.90594
    ## 6    01M    Tishomingo County 34.49167  -88.20111
    ## 7    02A           Gragg-Wade 32.85049  -86.61145
    ## 8    02C              Capitol 43.08751  -88.17787
    ## 9    02G    Columbiana County 40.67331  -80.64141
    ## 10   03D     Memphis Memorial 40.44726  -92.22696
    ## # ... with 3,366 more rows
…
