…
    ## Finding number of results to fetch

    ## Request to profileId: 46728973 (01 - GLOBAL)

    ## Fetched: date campaign users newUsers bounces. [2546] total results out of a possible [2546], Start-Index: 1

    ## All data found. [2546] total results out of a possible [2546]

``` r
dataset_a
```

    ## # A tibble: 2,546 × 5
    ##          date                         campaign users newUsers bounces
    ##        <date>                            <chr> <dbl>    <dbl>   <dbl>
    ## 1  2016-09-01                        (not set)     2        1       1
    ## 2  2016-09-01                        0 - MARCA     5        2       4
    ## 3  2016-09-01  ALI - MASTER - MARKETING ONLINE     1        0       1
    ## 4  2016-09-01     BCN - MASTER - ANALITICA WEB     1        1       1
    ## 5  2016-09-01                BCN - MASTER - UX     1        0       0
    ## 6  2016-09-01        MAD - CURSO - ESTADISTICA     1        1       0
    ## 7  2016-09-01         MAD - CURSO - OPEN STACK     1        1       1
    ## 8  2016-09-01       MAD - CURSO - PROGRAMACION     1        1       1
    ## 9  2016-09-01                  MAD - CURSO - R     1        0       1
    ## 10 2016-09-01 MAD - CURSO - SOLUCIONES NEGOCIO     2        2       2
    ## # ... with 2,536 more rows
Agrupación manual de datos por campaña
--------------------------------------

En el siguiente dataset he agrupado los datos por campaña y he sumado todoas las métricas para tener el número total de usuarios, nuevos usuarios y rebotes para todo el periodo

``` r
dataset_a <- dataset_a %>% 
  dplyr::select(-date) %>% 
  group_by(campaign) %>% 
  summarise_all(funs(dataset_a = sum))

dataset_a
```

    ## # A tibble: 38 × 4
    ##                           campaign users_dataset_a newUsers_dataset_a
    ##                              <chr>           <dbl>              <dbl>
    ## 1                        (not set)              11                  8
    ## 2                        0 - MARCA            3534               1836
    ## 3                    0 - MARCA BCN             558                323
    ## 4  ALI - MASTER - MARKETING ONLINE              30                 29
    ## 5     AND - MASTER - ANALITICA WEB               2                  1
    ## 6  AND - MASTER - MARKETING ONLINE               2                  2
    ## 7         AND - MASTER - SEO y SEM              47                 34
    ## 8     BCN - CURSO INT - CRO IGNITE              25                 11
    ## 9     BCN - MASTER - ANALITICA WEB             101                 72
    ## 10 BCN - MASTER - MARKETING ONLINE             100                 91
    ## # ... with 28 more rows, and 1 more variables: bounces_dataset_a <dbl>
…
